{
	"user-id": "",
	"events": [
		{
			"name": "HairDresser",
			"targetDateIntervall": {
				"start": "2019-09-17 16:00:00",
				"end": "2019-09-17 20:00:00"
			},
			"duration": "01:30:00",
			"location": "Forum"
		},
		{
			"name": "Course",
			"targetDateIntervall": {
				"start": "2019-09-17 12:00:00",
				"end": "2019-09-17 14:00:00"
			},
			"duration": "01:40:00",
			"location": "University"
		},
		{
			"name": "Shopping",
			"targetDateIntervall": {
				"start": "2019-09-17 08:00:00",
				"end": "2019-09-17 16:00:00"
			},
			"duration": "00:15:00",
			"location": "Forum"
		}
	]
}